mixergi/mcu/sine_wave_uart/sine_wave_uart/het.vcd
$date
     Jul 02, 2019       14:44:33
$end

$version
              SystemC 2.2.0 --- Aug  7 2015 17:35:54
$end

$timescale
     1 ps
$end

$scope module SystemC $end
$var wire    1  aaa  HETCLK       $end
$var wire    1  aab  LOOP_RESOLUTION_CLK       $end
$var wire    1  aac  HIGH_RESOLUTION_CLK       $end
$var wire   32  aad  A [31:0]  $end
$var wire   32  aae  B [31:0]  $end
$var wire   32  aaf  T [31:0]  $end
$var wire    1  aag  Z       $end
$var wire    1  aah  X       $end
$var wire    1  aai  SWT       $end
$var wire    1  aaj  NAF       $end
$var wire    1  aak  AF       $end
$var wire    1  aal  DCF       $end
$var wire    1  aam  GPF       $end
$var wire   32  aan  Loop_Count [31:0]  $end
$upscope $end
$enddefinitions  $end

$comment
All initial values are dumped below at time 0 sec = 0 timescale units.
$end

$dumpvars
1aaa
0aab
1aac
b0 aad
b0 aae
b0 aaf
0aag
0aah
0aai
0aaj
0aak
0aal
0aam
b0 aan
$end

#6250
0aaa
0aac

#12500
1aaa
1aac

#18750
0aaa
0aac

#25000
1aaa
1aac

#31250
0aaa
0aac

#37500
1aaa
1aac

#43750
0aaa
0aac

#50000
1aaa
1aac

#56250
0aaa
0aac

#62500
1aaa
1aac

#68750
0aaa
0aac

#75000
1aaa
1aac

#81250
0aaa
0aac

#87500
1aaa
1aac

#93750
0aaa
0aac

#100000
1aaa
1aac

#106250
0aaa
0aac

#112500
1aaa
1aac

#118750
0aaa
0aac

#125000
1aaa
1aac

#131250
0aaa
0aac

#137500
1aaa
1aac

#143750
0aaa
0aac

#150000
1aaa
1aac

#156250
0aaa
0aac

#162500
1aaa
1aac

#168750
0aaa
0aac

#175000
1aaa
1aac

#181250
0aaa
0aac

#187500
1aaa
1aab
1aac

#193750
0aaa
0aac

#200000
1aaa
0aab
1aac
b1 aad
b1 aan

#206250
0aaa
0aac

#212500
1aaa
1aac

#218750
0aaa
0aac

#225000
1aaa
1aac

#231250
0aaa
0aac

#237500
1aaa
1aac

#243750
0aaa
0aac

#250000
1aaa
1aac

#256250
0aaa
0aac

#262500
1aaa
1aac

#268750
0aaa
0aac

#275000
1aaa
1aac

#281250
0aaa
0aac

#287500
1aaa
1aac

#293750
0aaa
0aac

#300000
1aaa
1aac

#306250
0aaa
0aac

#312500
1aaa
1aac

#318750
0aaa
0aac

#325000
1aaa
1aac

#331250
0aaa
0aac

#337500
1aaa
1aac

#343750
0aaa
0aac

#350000
1aaa
1aac

#356250
0aaa
0aac

#362500
1aaa
1aac

#368750
0aaa
0aac

#375000
1aaa
1aac

#381250
0aaa
0aac

#387500
1aaa
1aab
1aac

#393750
0aaa
0aac

#400000
1aaa
0aab
1aac
b10 aad
b10 aan

#406250
0aaa
0aac

#412500
1aaa
1aac

#418750
0aaa
0aac

#425000
1aaa
1aac
b0 aad
1aag

#431250
0aaa
0aac

#437500
1aaa
1aac

#443750
0aaa
0aac

#450000
1aaa
1aac

#456250
0aaa
0aac

#462500
1aaa
1aac

#468750
0aaa
0aac

#475000
1aaa
1aac

#481250
0aaa
0aac

#487500
1aaa
1aac

#493750
0aaa
0aac

#500000
1aaa
1aac

#506250
0aaa
0aac

#512500
1aaa
1aac

#518750
0aaa
0aac

#525000
1aaa
1aac

#531250
0aaa
0aac

#537500
1aaa
1aac

#543750
0aaa
0aac

#550000
1aaa
1aac

#556250
0aaa
0aac

#562500
1aaa
1aac

#568750
0aaa
0aac

#575000
1aaa
1aac

#581250
0aaa
0aac

#587500
1aaa
1aab
1aac

#593750
0aaa
0aac

#600000
1aaa
0aab
1aac
b11 aad
0aag
b11 aan

#606250
0aaa
0aac

#612500
1aaa
1aac

#618750
0aaa
0aac

#625000
1aaa
1aac

#631250
0aaa
0aac

#637500
1aaa
1aac
b1 aad

#643750
0aaa
0aac

#650000
1aaa
1aac

#656250
0aaa
0aac

#662500
1aaa
1aac

#668750
0aaa
0aac

#675000
1aaa
1aac

#681250
0aaa
0aac

#687500
1aaa
1aac

#693750
0aaa
0aac

#700000
1aaa
1aac

#706250
0aaa
0aac

#712500
1aaa
1aac

#718750
0aaa
0aac

#725000
1aaa
1aac

#731250
0aaa
0aac

#737500
1aaa
1aac

#743750
0aaa
0aac

#750000
1aaa
1aac

#756250
0aaa
0aac

#762500
1aaa
1aac

#768750
0aaa
0aac

#775000
1aaa
1aac

#781250
0aaa
0aac

#787500
1aaa
1aab
1aac

#793750
0aaa
0aac

#800000
1aaa
0aab
1aac
b100 aad
b100 aan

#806250
0aaa
0aac

#812500
1aaa
1aac

#818750
0aaa
0aac

#825000
1aaa
1aac
b0 aad
1aag

#831250
0aaa
0aac

#837500
1aaa
1aac

#843750
0aaa
0aac

#850000
1aaa
1aac

#856250
0aaa
0aac

#862500
1aaa
1aac

#868750
0aaa
0aac

#875000
1aaa
1aac

#881250
0aaa
0aac

#887500
1aaa
1aac

#893750
0aaa
0aac

#900000
1aaa
1aac

#906250
0aaa
0aac

#912500
1aaa
1aac

#918750
0aaa
0aac

#925000
1aaa
1aac

#931250
0aaa
0aac

#937500
1aaa
1aac

#943750
0aaa
0aac

#950000
1aaa
1aac

#956250
0aaa
0aac

#962500
1aaa
1aac

#968750
0aaa
0aac

#975000
1aaa
1aac

#981250
0aaa
0aac

#987500
1aaa
1aab
1aac

#993750
0aaa
0aac

#1000000
1aaa
0aab
1aac
b101 aad
0aag
b101 aan

#1006250
0aaa
0aac

#1012500
1aaa
1aac

#1018750
0aaa
0aac

#1025000
1aaa
1aac
b1 aad

#1031250
0aaa
0aac

#1037500
1aaa
1aac

#1043750
0aaa
0aac

#1050000
1aaa
1aac

#1056250
0aaa
0aac

#1062500
1aaa
1aac

#1068750
0aaa
0aac

#1075000
1aaa
1aac

#1081250
0aaa
0aac

#1087500
1aaa
1aac

#1093750
0aaa
0aac

#1100000
1aaa
1aac

#1106250
0aaa
0aac

#1112500
1aaa
1aac

#1118750
0aaa
0aac

#1125000
1aaa
1aac

#1131250
0aaa
0aac

#1137500
1aaa
1aac

#1143750
0aaa
0aac

#1150000
1aaa
1aac

#1156250
0aaa
0aac

#1162500
1aaa
1aac

#1168750
0aaa
0aac

#1175000
1aaa
1aac

#1181250
0aaa
0aac

#1187500
1aaa
1aab
1aac

#1193750
0aaa
0aac

#1200000
1aaa
0aab
1aac
b110 aad
b110 aan

#1206250
0aaa
0aac

#1212500
1aaa
1aac

#1218750
0aaa
0aac

#1225000
1aaa
1aac
b0 aad
1aag

#1231250
0aaa
0aac

#1237500
1aaa
1aac

#1243750
0aaa
0aac

#1250000
1aaa
1aac

#1256250
0aaa
0aac

#1262500
1aaa
1aac

#1268750
0aaa
0aac

#1275000
1aaa
1aac

#1281250
0aaa
0aac

#1287500
1aaa
1aac

#1293750
0aaa
0aac

#1300000
1aaa
1aac

#1306250
0aaa
0aac

#1312500
1aaa
1aac

#1318750
0aaa
0aac

#1325000
1aaa
1aac

#1331250
0aaa
0aac

#1337500
1aaa
1aac

#1343750
0aaa
0aac

#1350000
1aaa
1aac

#1356250
0aaa
0aac

#1362500
1aaa
1aac

#1368750
0aaa
0aac

#1375000
1aaa
1aac

#1381250
0aaa
0aac

#1387500
1aaa
1aab
1aac

#1393750
0aaa
0aac

#1400000
1aaa
0aab
1aac
b111 aad
0aag
b111 aan

#1406250
0aaa
0aac

#1412500
1aaa
1aac

#1418750
0aaa
0aac

#1425000
1aaa
1aac
b1 aad

#1431250
0aaa
0aac

#1437500
1aaa
1aac

#1443750
0aaa
0aac

#1450000
1aaa
1aac

#1456250
0aaa
0aac

#1462500
1aaa
1aac

#1468750
0aaa
0aac

#1475000
1aaa
1aac

#1481250
0aaa
0aac

#1487500
1aaa
1aac

#1493750
0aaa
0aac

#1500000
1aaa
1aac

#1506250
0aaa
0aac

#1512500
1aaa
1aac

#1518750
0aaa
0aac

#1525000
1aaa
1aac

#1531250
0aaa
0aac

#1537500
1aaa
1aac

#1543750
0aaa
0aac

#1550000
1aaa
1aac

#1556250
0aaa
0aac

#1562500
1aaa
1aac

#1568750
0aaa
0aac

#1575000
1aaa
1aac

#1581250
0aaa
0aac

#1587500
1aaa
1aab
1aac

#1593750
0aaa
0aac

#1600000
1aaa
0aab
1aac
b1000 aad
b1000 aan

#1606250
0aaa
0aac

#1612500
1aaa
1aac

#1618750
0aaa
0aac

#1625000
1aaa
1aac
b0 aad
1aag

#1631250
0aaa
0aac

#1637500
1aaa
1aac

#1643750
0aaa
0aac

#1650000
1aaa
1aac

#1656250
0aaa
0aac

#1662500
1aaa
1aac

#1668750
0aaa
0aac

#1675000
1aaa
1aac

#1681250
0aaa
0aac

#1687500
1aaa
1aac

#1693750
0aaa
0aac

#1700000
1aaa
1aac

#1706250
0aaa
0aac

#1712500
1aaa
1aac

#1718750
0aaa
0aac

#1725000
1aaa
1aac

#1731250
0aaa
0aac

#1737500
1aaa
1aac

#1743750
0aaa
0aac

#1750000
1aaa
1aac

#1756250
0aaa
0aac

#1762500
1aaa
1aac

#1768750
0aaa
0aac

#1775000
1aaa
1aac

#1781250
0aaa
0aac

#1787500
1aaa
1aab
1aac

#1793750
0aaa
0aac

#1800000
1aaa
0aab
1aac
b1001 aad
0aag
b1001 aan

#1806250
0aaa
0aac

#1812500
1aaa
1aac

#1818750
0aaa
0aac

#1825000
1aaa
1aac
b1 aad

#1831250
0aaa
0aac

#1837500
1aaa
1aac

#1843750
0aaa
0aac

#1850000
1aaa
1aac

#1856250
0aaa
0aac

#1862500
1aaa
1aac

#1868750
0aaa
0aac

#1875000
1aaa
1aac

#1881250
0aaa
0aac

#1887500
1aaa
1aac

#1893750
0aaa
0aac

#1900000
1aaa
1aac

#1906250
0aaa
0aac

#1912500
1aaa
1aac

#1918750
0aaa
0aac

#1925000
1aaa
1aac

#1931250
0aaa
0aac

#1937500
1aaa
1aac

#1943750
0aaa
0aac

#1950000
1aaa
1aac

#1956250
0aaa
0aac

#1962500
1aaa
1aac

#1968750
0aaa
0aac

#1975000
1aaa
1aac

#1981250
0aaa
0aac

#1987500
1aaa
1aab
1aac

#1993750
0aaa
0aac

#2000000
1aaa
0aab
1aac
b1010 aad
b1010 aan

#2006250
0aaa
0aac

#2012500
1aaa
1aac

#2018750
0aaa
0aac

#2025000
1aaa
1aac
b0 aad
1aag

#2031250
0aaa
0aac

#2037500
1aaa
1aac

#2043750
0aaa
0aac

#2050000
1aaa
1aac

#2056250
0aaa
0aac

#2062500
1aaa
1aac

#2068750
0aaa
0aac

#2075000
1aaa
1aac

#2081250
0aaa
0aac

#2087500
1aaa
1aac

#2093750
0aaa
0aac

#2100000
1aaa
1aac

#2106250
0aaa
0aac

#2112500
1aaa
1aac

#2118750
0aaa
0aac

#2125000
1aaa
1aac

#2131250
0aaa
0aac

#2137500
1aaa
1aac

#2143750
0aaa
0aac

#2150000
1aaa
1aac

#2156250
0aaa
0aac

#2162500
1aaa
1aac

#2168750
0aaa
0aac

#2175000
1aaa
1aac

#2181250
0aaa
0aac

#2187500
1aaa
1aab
1aac

#2193750
0aaa
0aac

#2200000
1aaa
0aab
1aac
b1011 aan

#2206250
0aaa
0aac

#2212500
1aaa
1aac

#2218750
0aaa
0aac

#2225000
1aaa
1aac
b1 aad
0aag

#2231250
0aaa
0aac

#2237500
1aaa
1aac

#2243750
0aaa
0aac

#2250000
1aaa
1aac

#2256250
0aaa
0aac

#2262500
1aaa
1aac

#2268750
0aaa
0aac

#2275000
1aaa
1aac

#2281250
0aaa
0aac

#2287500
1aaa
1aac

#2293750
0aaa
0aac

#2300000
1aaa
1aac

#2306250
0aaa
0aac

#2312500
1aaa
1aac

#2318750
0aaa
0aac

#2325000
1aaa
1aac

#2331250
0aaa
0aac

#2337500
1aaa
1aac

#2343750
0aaa
0aac

#2350000
1aaa
1aac

#2356250
0aaa
0aac

#2362500
1aaa
1aac

#2368750
0aaa
0aac

#2375000
1aaa
1aac

#2381250
0aaa
0aac

#2387500
1aaa
1aab
1aac

#2393750
0aaa
0aac

#2400000
1aaa
0aab
1aac
b1100 aan

#2406250
0aaa
0aac

#2412500
1aaa
1aac

#2418750
0aaa
0aac

#2425000
1aaa
1aac
b0 aad
1aag

#2431250
0aaa
0aac

#2437500
1aaa
1aac

#2443750
0aaa
0aac

#2450000
1aaa
1aac

#2456250
0aaa
0aac

#2462500
1aaa
1aac

#2468750
0aaa
0aac

#2475000
1aaa
1aac

#2481250
0aaa
0aac

#2487500
1aaa
1aac

#2493750
0aaa
0aac

#2500000
1aaa
1aac

#2506250
0aaa
0aac

#2512500
1aaa
1aac

#2518750
0aaa
0aac

#2525000
1aaa
1aac

#2531250
0aaa
0aac

#2537500
1aaa
1aac

#2543750
0aaa
0aac

#2550000
1aaa
1aac

#2556250
0aaa
0aac

#2562500
1aaa
1aac

#2568750
0aaa
0aac

#2575000
1aaa
1aac

#2581250
0aaa
0aac

#2587500
1aaa
1aab
1aac

#2593750
0aaa
0aac

#2600000
1aaa
0aab
1aac
b10 aad
0aag
b1101 aan

#2606250
0aaa
0aac

#2612500
1aaa
1aac

#2618750
0aaa
0aac

#2625000
1aaa
1aac
b1 aad

#2631250
0aaa
0aac

#2637500
1aaa
1aac

#2643750
0aaa
0aac

#2650000
1aaa
1aac

#2656250
0aaa
0aac

#2662500
1aaa
1aac

#2668750
0aaa
0aac

#2675000
1aaa
1aac

#2681250
0aaa
0aac

#2687500
1aaa
1aac

#2693750
0aaa
0aac

#2700000
1aaa
1aac

#2706250
0aaa
0aac

#2712500
1aaa
1aac

#2718750
0aaa
0aac

#2725000
1aaa
1aac

#2731250
0aaa
0aac

#2737500
1aaa
1aac

#2743750
0aaa
0aac

#2750000
1aaa
1aac

#2756250
0aaa
0aac

#2762500
1aaa
1aac

#2768750
0aaa
0aac

#2775000
1aaa
1aac

#2781250
0aaa
0aac

#2787500
1aaa
1aab
1aac

#2793750
0aaa
0aac

#2800000
1aaa
0aab
1aac
b11 aad
b1110 aan

#2806250
0aaa
0aac

#2812500
1aaa
1aac

#2818750
0aaa
0aac

#2825000
1aaa
1aac

#2831250
0aaa
0aac

#2837500
1aaa
1aac
b0 aad
1aag

#2843750
0aaa
0aac

#2850000
1aaa
1aac

#2856250
0aaa
0aac

#2862500
1aaa
1aac

#2868750
0aaa
0aac

#2875000
1aaa
1aac

#2881250
0aaa
0aac

#2887500
1aaa
1aac

#2893750
0aaa
0aac

#2900000
1aaa
1aac

#2906250
0aaa
0aac

#2912500
1aaa
1aac

#2918750
0aaa
0aac

#2925000
1aaa
1aac

#2931250
0aaa
0aac

#2937500
1aaa
1aac

#2943750
0aaa
0aac

#2950000
1aaa
1aac

#2956250
0aaa
0aac

#2962500
1aaa
1aac

#2968750
0aaa
0aac

#2975000
1aaa
1aac

#2981250
0aaa
0aac

#2987500
1aaa
1aab
1aac

#2993750
0aaa
0aac

#3000000
1aaa
0aab
1aac
b100 aad
0aag
b1111 aan

#3006250
0aaa
0aac

#3012500
1aaa
1aac

#3018750
0aaa
0aac

#3025000
1aaa
1aac
b1 aad

#3031250
0aaa
0aac

#3037500
1aaa
1aac

#3043750
0aaa
0aac

#3050000
1aaa
1aac

#3056250
0aaa
0aac

#3062500
1aaa
1aac

#3068750
0aaa
0aac

#3075000
1aaa
1aac

#3081250
0aaa
0aac

#3087500
1aaa
1aac

#3093750
0aaa
0aac

#3100000
1aaa
1aac

#3106250
0aaa
0aac

#3112500
1aaa
1aac

#3118750
0aaa
0aac

#3125000
1aaa
1aac

#3131250
0aaa
0aac

#3137500
1aaa
1aac

#3143750
0aaa
0aac

#3150000
1aaa
1aac

#3156250
0aaa
0aac

#3162500
1aaa
1aac

#3168750
0aaa
0aac

#3175000
1aaa
1aac

#3181250
0aaa
0aac

#3187500
1aaa
1aab
1aac

#3193750
0aaa
0aac

#3200000
1aaa
0aab
1aac
b101 aad
b10000 aan

#3206250
0aaa
0aac

#3212500
1aaa
1aac

#3218750
0aaa
0aac

#3225000
1aaa
1aac
b0 aad
1aag

#3231250
0aaa
0aac

#3237500
1aaa
1aac

#3243750
0aaa
0aac

#3250000
1aaa
1aac

#3256250
0aaa
0aac

#3262500
1aaa
1aac

#3268750
0aaa
0aac

#3275000
1aaa
1aac

#3281250
0aaa
0aac

#3287500
1aaa
1aac

#3293750
0aaa
0aac

#3300000
1aaa
1aac

#3306250
0aaa
0aac

#3312500
1aaa
1aac

#3318750
0aaa
0aac

#3325000
1aaa
1aac

#3331250
0aaa
0aac

#3337500
1aaa
1aac

#3343750
0aaa
0aac

#3350000
1aaa
1aac

#3356250
0aaa
0aac

#3362500
1aaa
1aac

#3368750
0aaa
0aac

#3375000
1aaa
1aac

#3381250
0aaa
0aac

#3387500
1aaa
1aab
1aac

#3393750
0aaa
0aac

#3400000
1aaa
0aab
1aac
b110 aad
0aag
b10001 aan

#3406250
0aaa
0aac

#3412500
1aaa
1aac

#3418750
0aaa
0aac

#3425000
1aaa
1aac
b1 aad

#3431250
0aaa
0aac

#3437500
1aaa
1aac

#3443750
0aaa
0aac

#3450000
1aaa
1aac

#3456250
0aaa
0aac

#3462500
1aaa
1aac

#3468750
0aaa
0aac

#3475000
1aaa
1aac

#3481250
0aaa
0aac

#3487500
1aaa
1aac

#3493750
0aaa
0aac

#3500000
1aaa
1aac

#3506250
0aaa
0aac

#3512500
1aaa
1aac

#3518750
0aaa
0aac

#3525000
1aaa
1aac

#3531250
0aaa
0aac

#3537500
1aaa
1aac

#3543750
0aaa
0aac

#3550000
1aaa
1aac

#3556250
0aaa
0aac

#3562500
1aaa
1aac

#3568750
0aaa
0aac

#3575000
1aaa
1aac

#3581250
0aaa
0aac

#3587500
1aaa
1aab
1aac

#3593750
0aaa
0aac

#3600000
1aaa
0aab
1aac
b111 aad
b10010 aan

#3606250
0aaa
0aac

#3612500
1aaa
1aac

#3618750
0aaa
0aac

#3625000
1aaa
1aac
b0 aad
1aag

#3631250
0aaa
0aac

#3637500
1aaa
1aac

#3643750
0aaa
0aac

#3650000
1aaa
1aac

#3656250
0aaa
0aac

#3662500
1aaa
1aac

#3668750
0aaa
0aac

#3675000
1aaa
1aac

#3681250
0aaa
0aac

#3687500
1aaa
1aac

#3693750
0aaa
0aac

#3700000
1aaa
1aac

#3706250
0aaa
0aac

#3712500
1aaa
1aac

#3718750
0aaa
0aac

#3725000
1aaa
1aac

#3731250
0aaa
0aac

#3737500
1aaa
1aac

#3743750
0aaa
0aac

#3750000
1aaa
1aac

#3756250
0aaa
0aac

#3762500
1aaa
1aac

#3768750
0aaa
0aac

#3775000
1aaa
1aac

#3781250
0aaa
0aac

#3787500
1aaa
1aab
1aac

#3793750
0aaa
0aac

#3800000
1aaa
0aab
1aac
b1000 aad
0aag
b10011 aan

#3806250
0aaa
0aac

#3812500
1aaa
1aac

#3818750
0aaa
0aac

#3825000
1aaa
1aac
b1 aad

#3831250
0aaa
0aac

#3837500
1aaa
1aac

#3843750
0aaa
0aac

#3850000
1aaa
1aac

#3856250
0aaa
0aac

#3862500
1aaa
1aac

#3868750
0aaa
0aac

#3875000
1aaa
1aac

#3881250
0aaa
0aac

#3887500
1aaa
1aac

#3893750
0aaa
0aac

#3900000
1aaa
1aac

#3906250
0aaa
0aac

#3912500
1aaa
1aac

#3918750
0aaa
0aac

#3925000
1aaa
1aac

#3931250
0aaa
0aac

#3937500
1aaa
1aac

#3943750
0aaa
0aac

#3950000
1aaa
1aac

#3956250
0aaa
0aac

#3962500
1aaa
1aac

#3968750
0aaa
0aac

#3975000
1aaa
1aac

#3981250
0aaa
0aac

#3987500
1aaa
1aab
1aac

#3993750
0aaa
0aac

#4000000
1aaa
0aab
1aac
b1001 aad
b10100 aan

#4006250
0aaa
0aac

#4012500
1aaa
1aac

#4018750
0aaa
0aac

#4025000
1aaa
1aac
b0 aad
1aag

#4031250
0aaa
0aac

#4037500
1aaa
1aac

#4043750
0aaa
0aac

#4050000
1aaa
1aac

#4056250
0aaa
0aac

#4062500
1aaa
1aac

#4068750
0aaa
0aac

#4075000
1aaa
1aac

#4081250
0aaa
0aac

#4087500
1aaa
1aac

#4093750
0aaa
0aac

#4100000
1aaa
1aac

#4106250
0aaa
0aac

#4112500
1aaa
1aac

#4118750
0aaa
0aac

#4125000
1aaa
1aac

#4131250
0aaa
0aac

#4137500
1aaa
1aac

#4143750
0aaa
0aac

#4150000
1aaa
1aac

#4156250
0aaa
0aac

#4162500
1aaa
1aac

#4168750
0aaa
0aac

#4175000
1aaa
1aac

#4181250
0aaa
0aac

#4187500
1aaa
1aab
1aac

#4193750
0aaa
0aac

#4200000
1aaa
0aab
1aac
b1010 aad
0aag
b10101 aan

#4206250
0aaa
0aac

#4212500
1aaa
1aac

#4218750
0aaa
0aac

#4225000
1aaa
1aac
b1 aad

#4231250
0aaa
0aac

#4237500
1aaa
1aac

#4243750
0aaa
0aac

#4250000
1aaa
1aac

#4256250
0aaa
0aac

#4262500
1aaa
1aac

#4268750
0aaa
0aac

#4275000
1aaa
1aac

#4281250
0aaa
0aac

#4287500
1aaa
1aac

#4293750
0aaa
0aac

#4300000
1aaa
1aac

#4306250
0aaa
0aac

#4312500
1aaa
1aac

#4318750
0aaa
0aac

#4325000
1aaa
1aac

#4331250
0aaa
0aac

#4337500
1aaa
1aac

#4343750
0aaa
0aac

#4350000
1aaa
1aac

#4356250
0aaa
0aac

#4362500
1aaa
1aac

#4368750
0aaa
0aac

#4375000
1aaa
1aac

#4381250
0aaa
0aac

#4387500
1aaa
1aab
1aac

#4393750
0aaa
0aac

#4400000
1aaa
0aab
1aac
b0 aad
1aag
b10110 aan

#4406250
0aaa
0aac

#4412500
1aaa
1aac

#4418750
0aaa
0aac

#4425000
1aaa
1aac

#4431250
0aaa
0aac

#4437500
1aaa
1aac

#4443750
0aaa
0aac

#4450000
1aaa
1aac

#4456250
0aaa
0aac

#4462500
1aaa
1aac

#4468750
0aaa
0aac

#4475000
1aaa
1aac

#4481250
0aaa
0aac

#4487500
1aaa
1aac

#4493750
0aaa
0aac

#4500000
1aaa
1aac

#4506250
0aaa
0aac

#4512500
1aaa
1aac

#4518750
0aaa
0aac

#4525000
1aaa
1aac

#4531250
0aaa
0aac

#4537500
1aaa
1aac

#4543750
0aaa
0aac

#4550000
1aaa
1aac

#4556250
0aaa
0aac

#4562500
1aaa
1aac

#4568750
0aaa
0aac

#4575000
1aaa
1aac

#4581250
0aaa
0aac

#4587500
1aaa
1aab
1aac

#4593750
0aaa
0aac

#4600000
1aaa
0aab
1aac
b1 aad
0aag
b10111 aan

#4606250
0aaa
0aac

#4612500
1aaa
1aac

#4618750
0aaa
0aac

#4625000
1aaa
1aac

#4631250
0aaa
0aac

#4637500
1aaa
1aac

#4643750
0aaa
0aac

#4650000
1aaa
1aac

#4656250
0aaa
0aac

#4662500
1aaa
1aac

#4668750
0aaa
0aac

#4675000
1aaa
1aac

#4681250
0aaa
0aac

#4687500
1aaa
1aac

#4693750
0aaa
0aac

#4700000
1aaa
1aac

#4706250
0aaa
0aac

#4712500
1aaa
1aac

#4718750
0aaa
0aac

#4725000
1aaa
1aac

#4731250
0aaa
0aac

#4737500
1aaa
1aac

#4743750
0aaa
0aac

#4750000
1aaa
1aac

#4756250
0aaa
0aac

#4762500
1aaa
1aac

#4768750
0aaa
0aac

#4775000
1aaa
1aac

#4781250
0aaa
0aac

#4787500
1aaa
1aab
1aac

#4793750
0aaa
0aac

#4800000
1aaa
0aab
1aac
b10 aad
b11000 aan

#4806250
0aaa
0aac

#4812500
1aaa
1aac

#4818750
0aaa
0aac

#4825000
1aaa
1aac
b0 aad
1aag

#4831250
0aaa
0aac

#4837500
1aaa
1aac

#4843750
0aaa
0aac

#4850000
1aaa
1aac

#4856250
0aaa
0aac

#4862500
1aaa
1aac

#4868750
0aaa
0aac

#4875000
1aaa
1aac

#4881250
0aaa
0aac

#4887500
1aaa
1aac

#4893750
0aaa
0aac

#4900000
1aaa
1aac

#4906250
0aaa
0aac

#4912500
1aaa
1aac

#4918750
0aaa
0aac

#4925000
1aaa
1aac

#4931250
0aaa
0aac

#4937500
1aaa
1aac

#4943750
0aaa
0aac

#4950000
1aaa
1aac

#4956250
0aaa
0aac

#4962500
1aaa
1aac

#4968750
0aaa
0aac

#4975000
1aaa
1aac

#4981250
0aaa
0aac

#4987500
1aaa
1aab
1aac

#4993750
0aaa
0aac

#5000000
1aaa
0aab
1aac
b11 aad
0aag
b11001 aan

#5006250
0aaa
0aac

#5012500
1aaa
1aac

#5018750
0aaa
0aac

#5025000
1aaa
1aac

#5031250
0aaa
0aac

#5037500
1aaa
1aac
b1 aad

#5043750
0aaa
0aac

#5050000
1aaa
1aac

#5056250
0aaa
0aac

#5062500
1aaa
1aac

#5068750
0aaa
0aac

#5075000
1aaa
1aac

#5081250
0aaa
0aac

#5087500
1aaa
1aac

#5093750
0aaa
0aac

#5100000
1aaa
1aac

#5106250
0aaa
0aac

#5112500
1aaa
1aac

#5118750
0aaa
0aac

#5125000
1aaa
1aac

#5131250
0aaa
0aac

#5137500
1aaa
1aac

#5143750
0aaa
0aac

#5150000
1aaa
1aac

#5156250
0aaa
0aac

#5162500
1aaa
1aac

#5168750
0aaa
0aac

#5175000
1aaa
1aac

#5181250
0aaa
0aac

#5187500
1aaa
1aab
1aac

#5193750
0aaa
0aac

#5200000
1aaa
0aab
1aac
b100 aad
b11010 aan

#5206250
0aaa
0aac

#5212500
1aaa
1aac

#5218750
0aaa
0aac

#5225000
1aaa
1aac
b0 aad
1aag

#5231250
0aaa
0aac

#5237500
1aaa
1aac

#5243750
0aaa
0aac

#5250000
1aaa
1aac

#5256250
0aaa
0aac

#5262500
1aaa
1aac

#5268750
0aaa
0aac

#5275000
1aaa
1aac

#5281250
0aaa
0aac

#5287500
1aaa
1aac

#5293750
0aaa
0aac

#5300000
1aaa
1aac

#5306250
0aaa
0aac

#5312500
1aaa
1aac

#5318750
0aaa
0aac

#5325000
1aaa
1aac

#5331250
0aaa
0aac

#5337500
1aaa
1aac

#5343750
0aaa
0aac

#5350000
1aaa
1aac

#5356250
0aaa
0aac

#5362500
1aaa
1aac

#5368750
0aaa
0aac

#5375000
1aaa
1aac

#5381250
0aaa
0aac

#5387500
1aaa
1aab
1aac

#5393750
0aaa
0aac

#5400000
1aaa
0aab
1aac
b101 aad
0aag
b11011 aan

#5406250
0aaa
0aac

#5412500
1aaa
1aac

#5418750
0aaa
0aac

#5425000
1aaa
1aac
b1 aad

#5431250
0aaa
0aac

#5437500
1aaa
1aac

#5443750
0aaa
0aac

#5450000
1aaa
1aac

#5456250
0aaa
0aac

#5462500
1aaa
1aac

#5468750
0aaa
0aac

#5475000
1aaa
1aac

#5481250
0aaa
0aac

#5487500
1aaa
1aac

#5493750
0aaa
0aac

#5500000
1aaa
1aac

#5506250
0aaa
0aac

#5512500
1aaa
1aac

#5518750
0aaa
0aac

#5525000
1aaa
1aac

#5531250
0aaa
0aac

#5537500
1aaa
1aac

#5543750
0aaa
0aac

#5550000
1aaa
1aac

#5556250
0aaa
0aac

#5562500
1aaa
1aac

#5568750
0aaa
0aac

#5575000
1aaa
1aac

#5581250
0aaa
0aac

#5587500
1aaa
1aab
1aac

#5593750
0aaa
0aac

#5600000
1aaa
0aab
1aac
b110 aad
b11100 aan

#5606250
0aaa
0aac

#5612500
1aaa
1aac

#5618750
0aaa
0aac

#5625000
1aaa
1aac
b0 aad
1aag

#5631250
0aaa
0aac

#5637500
1aaa
1aac

#5643750
0aaa
0aac

#5650000
1aaa
1aac

#5656250
0aaa
0aac

#5662500
1aaa
1aac

#5668750
0aaa
0aac

#5675000
1aaa
1aac

#5681250
0aaa
0aac

#5687500
1aaa
1aac

#5693750
0aaa
0aac

#5700000
1aaa
1aac

#5706250
0aaa
0aac

#5712500
1aaa
1aac

#5718750
0aaa
0aac

#5725000
1aaa
1aac

#5731250
0aaa
0aac

#5737500
1aaa
1aac

#5743750
0aaa
0aac

#5750000
1aaa
1aac

#5756250
0aaa
0aac

#5762500
1aaa
1aac

#5768750
0aaa
0aac

#5775000
1aaa
1aac

#5781250
0aaa
0aac

#5787500
1aaa
1aab
1aac

#5793750
0aaa
0aac

#5800000
1aaa
0aab
1aac
b111 aad
0aag
b11101 aan

#5806250
0aaa
0aac

#5812500
1aaa
1aac

#5818750
0aaa
0aac

#5825000
1aaa
1aac
b1 aad

#5831250
0aaa
0aac

#5837500
1aaa
1aac

#5843750
0aaa
0aac

#5850000
1aaa
1aac

#5856250
0aaa
0aac

#5862500
1aaa
1aac

#5868750
0aaa
0aac

#5875000
1aaa
1aac

#5881250
0aaa
0aac

#5887500
1aaa
1aac

#5893750
0aaa
0aac

#5900000
1aaa
1aac

#5906250
0aaa
0aac

#5912500
1aaa
1aac

#5918750
0aaa
0aac

#5925000
1aaa
1aac

#5931250
0aaa
0aac

#5937500
1aaa
1aac

#5943750
0aaa
0aac

#5950000
1aaa
1aac

#5956250
0aaa
0aac

#5962500
1aaa
1aac

#5968750
0aaa
0aac

#5975000
1aaa
1aac

#5981250
0aaa
0aac

#5987500
1aaa
1aab
1aac

#5993750
0aaa
0aac

#6000000
1aaa
0aab
1aac
b1000 aad
b11110 aan

#6006250
0aaa
0aac

#6012500
1aaa
1aac

#6018750
0aaa
0aac

#6025000
1aaa
1aac
b0 aad
1aag

#6031250
0aaa
0aac

#6037500
1aaa
1aac

#6043750
0aaa
0aac

#6050000
1aaa
1aac

#6056250
0aaa
0aac

#6062500
1aaa
1aac

#6068750
0aaa
0aac

#6075000
1aaa
1aac

#6081250
0aaa
0aac

#6087500
1aaa
1aac

#6093750
0aaa
0aac

#6100000
1aaa
1aac

#6106250
0aaa
0aac

#6112500
1aaa
1aac

#6118750
0aaa
0aac

#6125000
1aaa
1aac

#6131250
0aaa
0aac

